<?xml version="1.0" encoding="UTF-8" standalone="no"?>
<svg
   xmlns:dc="http://purl.org/dc/elements/1.1/"
   xmlns:cc="http://creativecommons.org/ns#"
   xmlns:rdf="http://www.w3.org/1999/02/22-rdf-syntax-ns#"
   xmlns:svg="http://www.w3.org/2000/svg"
   xmlns="http://www.w3.org/2000/svg"
   xmlns:sodipodi="http://sodipodi.sourceforge.net/DTD/sodipodi-0.dtd"
   xmlns:inkscape="http://www.inkscape.org/namespaces/inkscape"
   version="1.1"
   id="svg2"
   xml:space="preserve"
   width="24"
   height="24"
   viewBox="0 0 24.000001 24.000001"
   sodipodi:docname="patreon-contact.svg"
   inkscape:version="0.92.5 (2060ec1f9f, 2020-04-08)"><sodipodi:namedview
     pagecolor="#ffffff"
     bordercolor="#666666"
     borderopacity="1"
     objecttolerance="10"
     gridtolerance="10"
     guidetolerance="10"
     inkscape:pageopacity="0"
     inkscape:pageshadow="2"
     inkscape:window-width="3840"
     inkscape:window-height="2160"
     id="namedview9"
     showgrid="true"
     inkscape:snap-global="true"
     inkscape:zoom="45.254834"
     inkscape:cx="17.061971"
     inkscape:cy="11.344071"
     inkscape:window-x="0"
     inkscape:window-y="0"
     inkscape:window-maximized="1"
     inkscape:current-layer="svg2"><inkscape:grid
       type="xygrid"
       id="grid4751" /></sodipodi:namedview><metadata
     id="metadata8"><rdf:RDF><cc:Work
         rdf:about=""><dc:format>image/svg+xml</dc:format><dc:type
           rdf:resource="http://purl.org/dc/dcmitype/StillImage" /><dc:title></dc:title></cc:Work></rdf:RDF></metadata><defs
     id="defs6" /><path
     d="m 11.957954,0.999975 c -6.0318204,0 -10.939197,4.911785 -10.939197,10.949585 0,6.019511 4.9073766,10.916809 10.939197,10.916809 6.013181,0 10.90516,-4.897298 10.90516,-10.916809 0,-6.0378 -4.891979,-10.949585 -10.90516,-10.949585"
     style="fill:#ff424d;fill-opacity:1;fill-rule:evenodd;stroke:none;stroke-width:0.00506552"
     id="path14-6" /><g
     transform="matrix(0.00224897,0,0,-0.00224897,5.7838509,19)"
     id="g12-5"><path
       id="path14-3"
       style="fill:#ffffff;fill-opacity:1;fill-rule:evenodd;stroke:none"
       d="m 3844.89,5757.79 c -1190.76,0 -2159.54,-969.65 -2159.54,-2161.59 0,-1188.33 968.78,-2155.12 2159.54,-2155.12 1187.08,0 2152.82,966.79 2152.82,2155.12 0,1191.94 -965.74,2161.59 -2152.82,2161.59"
       inkscape:connector-curvature="0" /><path
       id="path16-5"
       style="fill:#ffffff;fill-opacity:1;fill-rule:evenodd;stroke:none"
       d="M 0,0 H 1054.41 V 5757.81 H 0 V 0"
       inkscape:connector-curvature="0" /></g></svg>