<?xml version="1.0" encoding="UTF-8" standalone="no"?>
<svg
   xmlns:dc="http://purl.org/dc/elements/1.1/"
   xmlns:cc="http://creativecommons.org/ns#"
   xmlns:rdf="http://www.w3.org/1999/02/22-rdf-syntax-ns#"
   xmlns:svg="http://www.w3.org/2000/svg"
   xmlns="http://www.w3.org/2000/svg"
   viewBox="0 0 24.000001 24.000001"
   height="24"
   width="24"
   xml:space="preserve"
   id="svg2"
   version="1.1"><metadata
     id="metadata8"><rdf:RDF><cc:Work
         rdf:about=""><dc:format>image/svg+xml</dc:format><dc:type
           rdf:resource="http://purl.org/dc/dcmitype/StillImage" /><dc:title></dc:title></cc:Work></rdf:RDF></metadata><defs
     id="defs6" /><path
     id="path14-6"
     style="fill:#ff424d;fill-opacity:1;fill-rule:evenodd;stroke:none;stroke-width:0.00555801"
     d="M 12,1 C 5.3817384,1 -0.00275632,6.3893313 -0.00275632,13.014154 c 0,4.17498 2.15540162,7.822804 5.41001522,9.96758 0.036019,0.02374 0.13858,-0.0035 0.1748679,0.01986 l 12.7545782,-0.0089 c 0.152913,0.0073 0.207647,0.04532 0.250797,0.01673 3.23815,-2.145855 5.377908,-5.825121 5.377908,-9.995245 C 23.96541,6.3893313 18.59781,1 12,1" /><g
     id="g12-5"
     transform="matrix(0.00284519,0,0,-0.00284519,5,22.382063)"><path
       d="m 3844.89,5757.79 c -1190.76,0 -2159.54,-969.65 -2159.54,-2161.59 0,-1188.33 968.78,-2155.12 2159.54,-2155.12 1187.08,0 2152.82,966.79 2152.82,2155.12 0,1191.94 -965.74,2161.59 -2152.82,2161.59"
       style="fill:#ffffff;fill-opacity:1;fill-rule:evenodd;stroke:none"
       id="path14-3" /><path
       d="M 0,0 H 1054.41 V 5757.81 H 0 V 0"
       style="fill:#ffffff;fill-opacity:1;fill-rule:evenodd;stroke:none"
       id="path16-5" /></g></svg>