<?xml version="1.0" encoding="UTF-8" standalone="no"?>
<svg
   xmlns:dc="http://purl.org/dc/elements/1.1/"
   xmlns:cc="http://creativecommons.org/ns#"
   xmlns:rdf="http://www.w3.org/1999/02/22-rdf-syntax-ns#"
   xmlns:svg="http://www.w3.org/2000/svg"
   xmlns="http://www.w3.org/2000/svg"
   xmlns:xlink="http://www.w3.org/1999/xlink"
   id="svg8"
   version="1.1"
   viewBox="0 0 6.3499999 6.3500002"
   height="24"
   width="24">
  <defs
     id="defs2">
    <linearGradient
       id="linearGradient870">
      <stop
         id="stop866"
         offset="0"
         style="stop-color:#3ca9dc;stop-opacity:1" />
      <stop
         id="stop868"
         offset="1"
         style="stop-color:#2396d0;stop-opacity:1" />
    </linearGradient>
    <linearGradient
       gradientUnits="userSpaceOnUse"
       y2="296.99963"
       x2="6.3602033"
       y1="290.93094"
       x1="0.25873682"
       id="linearGradient872"
       xlink:href="#linearGradient870" />
  </defs>
  <metadata
     id="metadata5">
    <rdf:RDF>
      <cc:Work
         rdf:about="">
        <dc:format>image/svg+xml</dc:format>
        <dc:type
           rdf:resource="http://purl.org/dc/dcmitype/StillImage" />
        <dc:title></dc:title>
      </cc:Work>
    </rdf:RDF>
  </metadata>
  <g
     transform="translate(0,-290.64998)"
     id="layer1">
    <circle
       r="2.9104166"
       cy="293.82498"
       cx="3.175"
       id="path830"
       style="color:#000000;clip-rule:nonzero;display:inline;overflow:visible;visibility:visible;opacity:1;isolation:auto;mix-blend-mode:normal;color-interpolation:sRGB;color-interpolation-filters:linearRGB;solid-color:#000000;solid-opacity:1;vector-effect:none;fill:url(#linearGradient872);fill-opacity:1;fill-rule:nonzero;stroke:none;stroke-width:0.065;stroke-linecap:butt;stroke-linejoin:miter;stroke-miterlimit:4;stroke-dasharray:none;stroke-dashoffset:0;stroke-opacity:1;marker:none;paint-order:stroke fill markers;color-rendering:auto;image-rendering:auto;shape-rendering:auto;text-rendering:auto;enable-background:accumulate" />
    <path
       id="path832"
       d="m 2.2039296,294.25212 -0.818513,-0.27667 -0.053245,-0.0564 0.011484,-0.0731 0.1096222,-0.0877 3.0495871,-1.14216 0.083522,-0.005 0.065773,0.0459 0.029232,0.0605 -0.1419868,0.80599 -0.2150684,0.98973 -0.1044022,0.39673 -0.054289,0.261 -0.022969,0.0877 -0.050113,0.0752 -0.033409,0.0459 -0.077257,-0.004 -0.098138,-0.0313 -1.2298574,-0.89368 1.455407,-1.32003 0.0062,-0.0134 -0.011369,-0.0227 -0.024805,-0.009 -0.027905,0.008 -0.026872,0.0114 z"
       style="fill:#f6f9fc;fill-rule:evenodd;stroke:none;stroke-width:0.26458332px;stroke-linecap:butt;stroke-linejoin:miter;stroke-opacity:1;fill-opacity:1" />
    <path
       id="path834"
       transform="matrix(0.26458333,0,0,0.26458333,0,290.64998)"
       d="M 15.417969 9.2050781 L 15.3125 9.2363281 L 15.210938 9.2792969 L 8.3300781 13.615234 L 8.3242188 13.613281 L 8.3359375 13.630859 L 9.4140625 17 L 9.5078125 17.183594 L 9.6113281 17.304688 L 9.7167969 17.398438 L 10.03125 14.365234 L 15.53125 9.3769531 L 15.554688 9.3261719 L 15.511719 9.2402344 L 15.417969 9.2050781 z "
       style="fill:#c6d8e8;fill-opacity:1;fill-rule:evenodd;stroke:none;stroke-width:0.99999994px;stroke-linecap:butt;stroke-linejoin:miter;stroke-opacity:1" />
    <path
       id="path839"
       transform="matrix(0.26458333,0,0,0.26458333,0,290.64998)"
       d="M 10.03125 14.365234 L 9.7167969 17.398438 L 9.859375 17.398438 L 9.96875 17.355469 L 10.085938 17.246094 L 11.859375 15.693359 L 10.03125 14.365234 z "
       style="fill:#a1bed4;fill-opacity:1;fill-rule:evenodd;stroke:none;stroke-width:0.99999994px;stroke-linecap:butt;stroke-linejoin:miter;stroke-opacity:1" />
  </g>
</svg>
