%!PS-Adobe-3.0 EPSF-3.0
%%Creator: cairo 1.13.1 (http://cairographics.org)
%%CreationDate: Fri Jun 20 14:13:29 2014
%%Pages: 1
%%DocumentData: Clean7Bit
%%LanguageLevel: 2
%%BoundingBox: 0 -1 688 617
%%EndComments
%%BeginProlog
save
50 dict begin
/q { gsave } bind def
/Q { grestore } bind def
/cm { 6 array astore concat } bind def
/w { setlinewidth } bind def
/J { setlinecap } bind def
/j { setlinejoin } bind def
/M { setmiterlimit } bind def
/d { setdash } bind def
/m { moveto } bind def
/l { lineto } bind def
/c { curveto } bind def
/h { closepath } bind def
/re { exch dup neg 3 1 roll 5 3 roll moveto 0 rlineto
      0 exch rlineto 0 rlineto closepath } bind def
/S { stroke } bind def
/f { fill } bind def
/f* { eofill } bind def
/n { newpath } bind def
/W { clip } bind def
/W* { eoclip } bind def
/BT { } bind def
/ET { } bind def
/pdfmark where { pop globaldict /?pdfmark /exec load put }
    { globaldict begin /?pdfmark /pop load def /pdfmark
    /cleartomark load def end } ifelse
/BDC { mark 3 1 roll /BDC pdfmark } bind def
/EMC { mark /EMC pdfmark } bind def
/cairo_store_point { /cairo_point_y exch def /cairo_point_x exch def } def
/Tj { show currentpoint cairo_store_point } bind def
/TJ {
  {
    dup
    type /stringtype eq
    { show } { -0.001 mul 0 cairo_font_matrix dtransform rmoveto } ifelse
  } forall
  currentpoint cairo_store_point
} bind def
/cairo_selectfont { cairo_font_matrix aload pop pop pop 0 0 6 array astore
    cairo_font exch selectfont cairo_point_x cairo_point_y moveto } bind def
/Tf { pop /cairo_font exch def /cairo_font_matrix where
      { pop cairo_selectfont } if } bind def
/Td { matrix translate cairo_font_matrix matrix concatmatrix dup
      /cairo_font_matrix exch def dup 4 get exch 5 get cairo_store_point
      /cairo_font where { pop cairo_selectfont } if } bind def
/Tm { 2 copy 8 2 roll 6 array astore /cairo_font_matrix exch def
      cairo_store_point /cairo_font where { pop cairo_selectfont } if } bind def
/g { setgray } bind def
/rg { setrgbcolor } bind def
/d1 { setcachedevice } bind def
%%EndProlog
%%BeginSetup
%%EndSetup
%%Page: 1 1
%%BeginPageSetup
%%PageBoundingBox: 0 -1 688 617
%%EndPageSetup
q 0 -1 688 618 rectclip q
0.968627 0.556863 0.0784314 rg
385.691 433.225 m 383.027 448.725 376.527 458.057 370.527 461.225 c 370.414
 461.284 370.293 461.347 370.176 461.405 c 366.828 459.042 361.59 459.108
 357.336 460.905 c 357.047 461.03 356.793 461.171 356.555 461.319 c 354.141
 460.698 351.727 460.12 349.418 459.78 c 344.023 458.987 337.012 457.983
 332.98 462.292 c 332.117 461.96 331.242 461.612 330.359 461.225 c 325.164
 458.944 315.359 451.225 313.527 436.89 c 311.727 422.815 320.191 401.39
 346.359 397.557 c 372.527 393.725 388.359 417.725 385.691 433.225 c f
0.129412 0.109804 0.113725 rg
163.461 466.39 m 158.852 466.651 156.691 457.725 158.027 446.225 c 159.359
 434.725 164.191 429.725 166.359 429.057 c 168.527 428.39 171.523 437.057
 171.191 447.725 c 170.859 458.39 166.395 466.225 163.461 466.39 c f
226.719 558.057 m 223.266 558.905 220.523 542.39 220.691 535.725 c 220.859
 529.057 225.527 523.89 227.859 521.89 c 230.191 519.89 230.359 522.39 231.191
 526.39 c 232.027 530.39 234.191 536.725 233.527 544.39 c 232.859 552.057
 228.078 557.725 226.719 558.057 c f
351.191 604.39 m 348.344 606.311 344.527 591.225 345.527 582.057 c 346.527
 572.89 352.531 568.39 354.445 567.89 c 356.359 567.39 357.359 573.39 358.027
 577.39 c 358.691 581.39 364.062 595.725 351.191 604.39 c f
471.691 569.89 m 468.859 568.557 465.859 551.39 466.859 544.725 c 467.859
 538.057 474.023 532.557 475.359 533.057 c 476.691 533.557 478.191 538.225
 478.691 545.225 c 479.191 552.225 480.191 551.089 477.359 560.573 c 474.527
 570.057 471.691 569.89 471.691 569.89 c f
545.91 484.725 m 542.562 484.725 538.691 472.725 541.691 461.39 c 544.691
 450.057 550.191 445.89 551.191 447.39 c 552.191 448.89 557.027 459.39 555.027
 469.057 c 553.027 478.725 548.125 484.725 545.91 484.725 c f
536.605 371.39 m 534.18 370.057 528.359 358.725 531.191 347.89 c 534.027
 337.057 539.707 332.557 540.617 334.557 c 541.527 336.557 546.523 350.225
 544.359 359.057 c 542.191 367.89 537.633 371.956 536.605 371.39 c f
170.859 354.62 m 173.109 352.577 176.859 347.725 177.191 337.725 c 177.527
 327.725 176.191 322.057 175.359 318.89 c 174.527 315.725 168.527 315.89
 165.191 324.557 c 161.859 333.225 163.191 339.725 165.191 346.89 c 167.191
 354.057 169.355 355.987 170.859 354.62 c f
538.691 443.057 m 524.859 448.057 521.191 464.39 524.191 473.057 c 527.191
 481.725 537.25 491.225 546.027 489.225 c 557.852 486.526 567.191 480.225
 568.527 464.557 c 569.859 448.89 552.527 438.057 538.691 443.057 c h
514.027 357.225 m 514.691 367.725 525.301 376.761 534.027 376.725 c 548.402
 376.667 556.691 367.39 559.027 353.057 c 561.359 338.725 544.527 326.725
 531.527 329.39 c 518.527 332.057 513.359 346.725 514.027 357.225 c h
490.441 381.975 m 489.691 375.725 488.441 372.225 483.941 366.518 c 479.441
 360.811 477.191 350.475 474.691 339.975 c 472.191 329.475 465.691 299.975
 463.191 285.725 c 460.691 271.475 449.691 255.725 446.941 249.225 c 444.191
 242.725 439.941 239.475 435.691 237.725 c 431.441 235.975 424.855 233.702
 421.355 230.452 c 417.855 227.202 426.605 229.202 430.855 229.702 c 435.105
 230.202 435.105 229.702 434.855 227.702 c 434.605 225.702 425.605 223.202
 417.605 219.569 c 409.605 215.929 399.355 217.202 393.355 219.569 c 387.355
 221.929 338.441 219.616 326.191 218.866 c 313.941 218.116 303.441 214.616
 296.941 217.116 c 290.441 219.616 300.441 222.616 303.191 226.042 c 305.941
 229.468 296.441 227.616 290.441 226.366 c 284.441 225.116 280.441 227.616
 269.441 231.616 c 258.441 235.616 255.441 243.725 256.441 247.975 c 257.441
 252.225 255.191 260.475 251.941 273.725 c 248.691 286.975 239.191 314.225
 234.691 329.018 c 230.191 343.811 232.191 347.225 230.191 360.975 c 228.191
 374.725 223.941 373.725 220.691 376.725 c 217.441 379.725 222.191 385.21
 222.191 385.21 c 222.191 385.21 230.941 377.975 235.441 372.725 c 239.941
 367.475 237.191 362.225 238.191 354.62 c 239.191 347.018 241.191 340.225
 245.441 329.018 c 249.691 317.811 255.191 296.975 256.941 283.475 c 258.691
 269.975 263.941 252.116 270.191 246.366 c 276.441 240.616 293.191 232.866
 293.191 232.866 c 293.191 232.866 291.691 236.116 290.691 240.616 c 289.691
 245.116 288.191 251.116 288.941 257.366 c 289.691 263.616 291.941 264.866
 292.691 263.866 c 293.441 262.866 293.441 254.616 296.441 245.366 c 299.441
 236.116 308.941 230.616 308.941 230.616 c 315.191 230.616 l 315.191 230.616
 314.191 233.366 313.191 238.616 c 312.191 243.866 313.691 249.116 314.441
 251.616 c 315.191 254.116 317.441 249.866 319.691 242.866 c 321.941 235.866
 325.191 237.725 328.191 235.975 c 331.191 234.225 337.441 235.725 352.25
 235.475 c 367.051 235.225 377.105 233.202 379.355 233.202 c 381.605 233.202
 384.355 237.702 386.355 244.202 c 388.355 250.702 388.105 254.702 389.105
 254.202 c 390.105 253.702 391.355 246.702 392.105 241.202 c 392.855 235.702
 391.105 231.952 392.105 232.186 c 393.105 232.417 402.605 232.186 402.605
 232.186 c 402.605 232.186 405.855 235.202 408.855 242.452 c 411.855 249.702
 412.105 262.702 412.105 268.952 c 412.105 275.202 413.105 272.202 415.445
 268.452 c 417.785 264.702 418.105 254.702 418.355 247.952 c 418.605 241.202
 414.605 231.702 415.605 232.202 c 416.605 232.702 437.941 248.975 444.441
 261.225 c 450.941 273.475 457.191 297.725 460.441 321.475 c 463.691 345.225
 465.941 346.475 470.441 354.62 c 474.941 362.768 482.441 381.975 483.691
 388.225 c 484.941 394.475 483.508 397.265 486.941 394.991 c 489.941 393.007
 491.191 388.225 490.441 381.975 c h
480.359 312.89 m 475.359 314.725 477.289 327.003 482.707 325.39 c 484.391
 324.89 485.691 324.057 486.191 321.057 c 486.691 318.057 485.359 311.057
 480.359 312.89 c h
474.098 296.89 m 470.672 300.225 476.434 308.94 479.527 307.225 c 481.027
 306.39 482.359 306.89 482.691 302.069 c 483.027 297.249 477.527 293.557
 474.098 296.89 c h
472.191 278.057 m 467.691 277.722 470.004 288.983 473.359 289.725 c 483.199
 291.89 476.691 278.39 472.191 278.057 c h
467.527 264.225 m 463.527 263.725 464.461 268.874 468.691 271.39 c 470.129
 272.245 472.859 274.39 474.027 271.39 c 475.195 268.39 471.527 264.725 
467.527 264.225 c h
460.027 251.722 m 455.359 252.054 457.969 258.241 460.859 260.225 c 461.977
 260.991 464.191 260.225 465.027 258.225 c 465.859 256.225 464.691 251.39
 460.027 251.722 c h
245.191 248.225 m 242.027 250.057 243.324 254.581 245.191 255.725 c 246.27
 256.386 249.027 256.057 250.191 251.975 c 251.359 247.89 248.359 246.39
 245.191 248.225 c h
242.191 266.057 m 243.203 266.999 244.859 266.39 245.691 263.89 c 246.527
 261.39 245.027 258.557 242.191 259.89 c 239.359 261.222 239.93 263.94 242.191
 266.057 c h
238.859 277.89 m 240.242 278.972 242.027 277.225 242.859 274.89 c 243.691
 272.557 242.691 268.557 238.859 270.39 c 235.027 272.222 235.98 275.636
 238.859 277.89 c h
234.691 290.725 m 236.039 292.038 238.691 290.557 240.191 287.225 c 241.691
 283.89 238.027 280.225 234.691 282.39 c 231.359 284.557 232.441 288.53 
234.691 290.725 c h
231.027 303.89 m 232.859 305.222 235.527 303.725 236.527 299.225 c 237.527
 294.725 235.691 293.557 233.359 294.557 c 231.027 295.557 228.598 302.124
 231.027 303.89 c h
230.527 318.89 m 232.395 319.003 233.359 314.39 233.359 311.382 c 233.359
 308.37 230.027 306.057 226.914 309.39 c 223.797 312.725 225.328 318.585
 230.527 318.89 c h
228.527 398.057 m 230.859 399.557 238.062 401.768 243.387 395.89 c 247.91
 390.89 274.027 372.725 290.859 369.725 c 307.691 366.725 311.191 364.057
 329.191 362.725 c 347.191 361.39 372.691 359.557 382.027 362.557 c 391.359
 365.557 405.027 364.057 429.359 371.44 c 453.695 378.827 458.359 388.225
 461.859 392.89 c 465.359 397.557 464.027 401.725 466.027 402.89 c 468.027
 404.057 474.859 396.89 476.691 394.991 c 478.527 393.089 477.191 391.39
 475.691 385.89 c 474.191 380.39 470.191 374.89 461.691 369.225 c 453.191
 363.557 438.508 363.057 438.508 363.057 c 438.508 363.057 437.191 358.557
 438.508 349.225 c 439.824 339.89 436.691 328.225 435.527 325.057 c 434.359
 321.89 430.359 317.89 427.359 313.557 c 424.359 309.225 422.027 306.225
 421.191 306.225 c 420.359 306.225 420.359 311.725 421.191 315.057 c 422.027
 318.39 424.359 324.89 422.859 334.057 c 421.359 343.225 417.527 359.557
 417.527 359.557 c 404.527 358.725 l 404.527 358.725 405.691 348.225 405.527
 336.557 c 405.359 324.89 404.359 323.89 403.859 323.057 c 403.359 322.225
 402.859 326.725 401.691 333.057 c 400.527 339.39 393.027 355.725 392.191
 356.89 c 391.359 358.057 389.859 357.725 385.527 354.89 c 381.191 352.057
 358.691 348.557 351.359 347.39 c 344.027 346.225 315.527 357.725 315.527
 357.725 c 315.527 357.725 313.027 355.89 311.527 351.225 c 310.027 346.557
 306.027 328.725 305.691 325.39 c 305.359 322.057 303.859 325.39 302.527
 328.89 c 301.191 332.39 300.691 342.557 300.859 346.89 c 301.027 351.225
 304.859 359.39 304.027 359.89 c 303.191 360.39 290.359 361.725 290.359 
361.725 c 290.359 361.725 284.859 344.39 283.859 338.39 c 282.859 332.39
 284.527 309.225 283.859 308.39 c 283.191 307.557 278.027 315.39 275.359
 319.39 c 272.691 323.39 269.859 328.39 269.527 335.725 c 269.191 343.057
 266.859 364.725 266.859 364.725 c 266.859 364.725 254.359 369.89 251.527
 373.557 c 248.691 377.225 247.027 379.225 242.191 382.39 c 237.359 385.557
 227.359 388.225 227.191 389.89 c 227.027 391.557 226.191 396.557 228.527
 398.057 c h
245.527 404.557 m 247.859 406.057 256.191 399.167 262.027 397.112 c 267.859
 395.057 281.508 385.464 277.359 385.225 c 273.762 385.018 267.359 387.225
 261.027 390.725 c 254.691 394.225 248.859 396.89 245.527 398.89 c 242.191
 400.89 243.191 403.057 245.527 404.557 c h
248.527 449.491 m 251.691 450.257 252.535 449.249 255.527 446.057 c 257.938
 443.483 263.359 443.557 264.691 439.057 c 266.027 434.557 256.359 435.89
 250.859 439.057 c 245.359 442.225 245.359 448.725 248.527 449.491 c h
260.758 462.909 m 263 460.222 258.027 451.757 252.691 455.741 c 247.359
 459.725 256.156 468.425 260.758 462.909 c h
268.441 457.225 m 272.816 457.725 274.391 454.956 273.941 453.765 c 272.414
 449.694 269.066 446.882 264.691 449.491 c 260.316 452.1 264.066 456.725
 268.441 457.225 c h
274.016 477.925 m 276.445 473.565 268.859 468.682 266.527 473.87 c 264.191
 479.057 270.84 483.628 274.016 477.925 c h
284.816 448.6 m 289.566 449.225 289.191 446.475 288.816 442.975 c 288.441
 439.475 278.566 433.975 273.816 434.725 c 269.066 435.475 271.316 439.35
 274.441 443.225 c 277.566 447.1 279.523 447.901 284.816 448.6 c h
280.332 489.979 m 282.641 490.905 285.027 492.557 288.102 489.979 c 291.18
 487.405 291.359 482.89 283.691 482.39 c 276.027 481.89 276.66 488.511 280.332
 489.979 c h
294.191 474.225 m 293.309 471.042 285.941 468.589 282.941 470.468 c 279.941
 472.35 283.691 476.85 288.566 477.725 c 293.441 478.6 294.816 476.475 294.191
 474.225 c h
307.816 471.28 m 311.066 469.78 314.566 468.905 318.191 467.78 c 321.816
 466.655 320.191 463.905 318.191 461.628 c 316.191 459.35 312.691 461.655
 311.941 463.655 c 311.191 465.655 311.816 465.655 308.941 464.78 c 306.066
 463.905 296.691 462.905 291.566 461.03 c 286.441 459.155 279.367 456.858
 280.441 458.655 c 281.566 460.53 292.691 466.405 297.941 469.655 c 303.191
 472.905 304.566 472.78 307.816 471.28 c h
307.527 496.225 m 317.027 501.557 329.527 497.39 344.359 494.057 c 359.191
 490.725 382.359 494.39 388.191 494.725 c 394.027 495.057 394.191 494.225
 395.527 492.39 c 396.859 490.557 394.191 491.557 389.527 491.557 c 384.859
 491.557 371.527 485.557 354.445 483.725 c 337.363 481.89 322.527 490.057
 314.359 493.39 c 306.191 496.725 305.309 494.979 307.527 496.225 c h
329.027 576.057 m 325.359 587.39 328.027 592.893 334.859 601.225 c 341.691
 609.557 351.859 610.725 360.359 607.557 c 368.859 604.39 376.027 593.225
 371.691 579.057 c 367.359 564.89 361.359 561.893 350.859 560.725 c 340.754
 559.6 332.691 564.725 329.027 576.057 c h
406.066 489.975 m 409.566 489.85 410.941 490.1 411.066 485.35 c 411.191
 480.6 403.191 478.975 401.066 482.1 c 398.941 485.225 400.133 490.186 406.066
 489.975 c h
416.941 500.975 m 428.066 497.35 416.816 490.1 412.031 492.975 c 407.242
 495.85 411.668 502.694 416.941 500.975 c h
426.066 486.725 m 430.816 485.975 433.566 483.475 432.816 479.725 c 432.066
 475.975 421.691 477.225 419.066 480.495 c 416.441 483.765 421.117 487.507
 426.066 486.725 c h
436.441 463.718 m 434.566 464.839 421.691 464.725 415.691 465.225 c 409.691
 465.725 401.816 465.975 398.941 463.718 c 396.066 461.464 397.941 459.6
 395.871 456.1 c 393.797 452.6 388.816 455.475 387.316 458.725 c 385.816
 461.975 388.898 462.87 391.941 465.975 c 398.066 472.225 399.691 471.6 
406.191 470.862 c 412.691 470.128 428.191 468.35 432.191 467.225 c 436.191
 466.1 438.316 462.6 436.441 463.718 c h
431.691 459.69 m 439.359 458.491 437.527 452.225 430.859 453.765 c 424.191
 455.307 425.27 460.698 431.691 459.69 c h
437.133 440.225 m 435.074 436.6 429.191 437.35 422.316 441.225 c 415.441
 445.1 415.664 451.151 419.691 450.975 c 422.566 450.85 424.941 450.225 
430.316 448.225 c 435.691 446.225 439.191 443.85 437.133 440.225 c h
403.941 458.007 m 408.316 457.534 409.941 456.6 410.566 453.225 c 411.191
 449.85 407.191 448.35 402.566 450.475 c 397.941 452.6 398.863 458.55 403.941
 458.007 c h
380.066 472.296 m 384.316 470.866 383.941 469.1 383.691 465.975 c 383.441
 462.85 379.066 461.725 374.691 465.151 c 370.316 468.573 375.672 473.772
 380.066 472.296 c h
361.316 471.315 m 364.816 471.85 366.941 470.257 367.191 467.804 c 367.496
 464.854 360.566 462.1 357.191 464.475 c 353.816 466.85 357.816 470.78 361.316
 471.315 c h
345.691 471.417 m 349.816 470.6 354.066 468.3 349.441 463.573 c 345.926
 459.979 339.316 464.893 338.316 467.499 c 337.316 470.1 341.566 472.237
 345.691 471.417 c h
329.191 473.225 m 335.191 473.475 336.023 469.761 334.191 467.804 c 330.855
 464.229 325.566 464.1 324.191 465.85 c 322.816 467.6 323.191 472.975 329.191
 473.225 c h
298.121 459.085 m 301.645 459.96 304.227 458.96 302.977 455.897 c 301.727
 452.835 295.227 451.085 293.227 452.71 c 291.227 454.335 293.766 458.003
 298.121 459.085 c h
303.941 450.225 m 316.691 458.225 334.941 461.475 342.691 455.225 c 343.938
 454.222 339.191 446.725 340.191 434.475 c 341.191 422.225 344.191 415.475
 347.191 411.725 c 350.191 407.975 351.441 407.725 354.441 411.725 c 357.441
 415.725 360.441 424.975 358.941 439.475 c 357.441 453.975 355.191 452.975
 357.441 453.975 c 359.691 454.975 369.691 459.975 378.191 456.475 c 386.691
 452.975 404.941 444.725 410.941 436.725 c 416.941 428.725 417.691 423.725
 402.441 408.815 c 393.402 399.979 374.191 388.225 353.691 386.225 c 349.121
 385.776 341.438 387.21 334.691 389.475 c 304.191 399.725 290.941 409.475
 286.691 415.725 c 282.98 421.182 282.25 423.327 284 426.827 c 285.75 430.327
 291.191 442.225 303.941 450.225 c h
439.691 416.225 m 436.027 414.725 421.691 398.89 415.027 392.397 c 408.359
 385.901 386.691 377.057 379.359 372.225 c 372.027 367.39 351.191 363.725
 329.691 369.39 c 308.191 375.057 290.859 391.39 282.027 397.557 c 273.191
 403.725 255.691 408.057 251.527 408.057 c 247.359 408.057 251.027 410.725
 255.527 413.057 c 260.027 415.39 261.691 422.89 266.527 421.225 c 266.527
 421.225 273.359 413.39 278.527 406.725 c 283.691 400.057 298.027 390.225
 313.359 383.39 c 328.691 376.557 351.191 373.39 361.691 375.057 c 372.191
 376.725 389.527 384.89 400.027 389.725 c 410.527 394.557 422.027 412.225
 424.859 419.225 c 427.695 426.225 427.359 426.225 430.027 427.057 c 432.691
 427.89 435.527 422.725 439.691 419.725 c 443.859 416.725 443.359 417.725
 439.691 416.225 c h
445.316 452.725 m 448.566 452.85 450.316 450.975 450.441 448.913 c 450.566
 446.85 448.941 442.85 443.941 445.1 c 438.941 447.35 441.629 452.581 445.316
 452.725 c h
455.191 412.39 m 456.027 410.39 456.859 407.39 451.859 398.89 c 446.859
 390.39 438.527 384.225 431.691 381.39 c 424.859 378.557 421.359 377.057
 421.191 379.89 c 421.191 379.89 421.359 381.39 424.359 383.557 c 427.359
 385.725 434.027 390.39 440.191 396.835 c 446.359 403.276 447.691 408.725
 449.359 413.557 c 451.027 418.39 454.359 414.39 455.191 412.39 c h
454.191 460.975 m 454.965 461.585 457.691 463.35 459.441 459.39 c 461.191
 455.429 459.941 452.225 455.066 452.729 c 450.191 453.237 451.551 458.89
 454.191 460.975 c h
461.359 529.057 m 445.859 535.057 445.527 548.725 449.527 557.725 c 453.527
 566.725 461.734 574.581 470.359 574.225 c 490.527 573.393 496.527 556.89
 492.527 543.225 c 488.527 529.557 476.859 523.057 461.359 529.057 c h
190.191 328.725 m 186.68 318.261 179.527 308.39 166.359 312.225 c 153.191
 316.057 145.691 328.89 146.027 336.225 c 146.359 343.557 150.691 356.725
 164.527 359.057 c 178.359 361.39 186.191 355.39 190.191 346.725 c 194.191
 338.057 191.605 332.929 190.191 328.725 c h
171.359 426.39 m 161.191 420.057 148.359 428.725 143.859 435.557 c 139.359
 442.39 140.191 454.39 146.359 461.057 c 152.523 467.725 159.355 471.03 
165.859 470.39 c 177.691 469.225 183.527 461.39 185.527 454.39 c 187.527
 447.39 181.527 432.725 171.359 426.39 c h
203.859 542.557 m 204.023 552.057 215.32 561.862 223.191 562.725 c 237.102
 564.245 247.359 553.057 249.359 541.39 c 251.359 529.725 239.859 514.225
 223.191 515.557 c 206.527 516.893 203.691 533.057 203.859 542.557 c h
556.691 436.475 m 562.691 439.725 574.441 446.975 574.191 462.975 c 573.941
 478.975 562.691 488.975 558.441 491.725 c 554.191 494.475 545.441 497.475
 541.191 494.725 c 536.941 491.975 532.691 490.975 532.441 492.975 c 532.191
 494.975 533.191 501.225 533.941 505.475 c 534.691 509.725 534.941 508.725
 537.191 511.725 c 539.441 514.725 545.191 516.475 541.691 525.225 c 538.191
 533.975 523.191 535.725 521.441 526.475 c 519.691 517.225 524.191 512.725
 524.691 507.475 c 525.191 502.225 522.441 495.975 523.191 490.975 c 523.941
 485.975 524.691 485.225 523.691 483.725 c 522.691 482.225 515.191 479.225
 516.941 461.475 c 518.691 443.725 525.441 434.475 527.941 427.725 c 530.441
 420.975 531.941 411.725 523.191 414.225 c 514.441 416.725 502.691 427.225
 496.691 435.975 c 490.691 444.725 488.691 449.225 488.691 449.225 c 488.691
 449.225 499.941 445.78 506.191 458.503 c 512.441 471.225 512.691 480.225
 505.191 495.475 c 497.691 510.725 494.191 515.225 495.441 526.475 c 496.691
 537.725 499.941 541.475 499.941 548.225 c 499.941 554.975 498.691 563.225
 487.691 573.725 c 476.691 584.225 462.191 582.475 450.691 569.475 c 439.191
 556.475 439.191 542.725 446.191 530.975 c 453.191 519.225 476.691 502.225
 481.441 493.725 c 486.191 485.225 492.441 472.475 482.191 470.225 c 471.941
 467.975 473.941 471.975 466.441 479.975 c 458.941 487.975 451.441 493.475
 440.691 500.725 c 429.941 507.975 418.941 512.475 418.941 512.475 c 418.941
 512.475 429.691 521.725 429.691 525.475 c 429.691 529.225 428.941 537.725
 422.941 543.225 c 416.941 548.725 418.941 547.725 420.441 550.225 c 421.941
 552.725 424.441 569.475 409.441 567.725 c 394.441 565.975 391.941 555.475
 400.691 545.975 c 409.441 536.475 418.191 529.475 416.691 524.225 c 415.191
 518.975 399.441 520.475 390.691 521.225 c 381.941 521.975 367.691 523.225
 364.191 522.975 c 363.078 522.893 358.941 535.225 362.941 542.225 c 366.941
 549.225 379.441 569.975 379.441 584.475 c 379.441 598.975 370.191 609.975
 355.941 615.225 c 341.691 620.475 327.941 606.975 323.941 594.975 c 319.941
 582.975 327.691 562.225 333.191 552.725 c 338.691 543.225 337.191 522.975
 337.191 522.975 c 337.191 522.975 319.691 520.725 310.941 517.975 c 302.191
 515.225 301.691 512.475 290.691 511.975 c 279.691 511.475 275.941 515.475
 279.691 524.225 c 283.441 532.975 298.941 540.975 302.441 550.475 c 305.941
 559.975 302.691 571.475 289.691 567.975 c 276.691 564.475 276.691 552.725
 279.941 548.225 c 283.191 543.725 284.191 544.725 279.691 541.975 c 275.191
 539.225 260.441 517.225 269.191 508.475 c 277.941 499.725 274.941 501.975
 271.191 499.725 c 267.441 497.475 250.441 485.475 242.441 474.225 c 234.441
 462.975 234.691 457.725 225.941 456.975 c 217.191 456.225 215.441 462.975
 217.941 473.725 c 220.441 484.475 247.941 507.475 251.691 521.225 c 255.441
 534.975 256.691 546.975 247.941 556.475 c 239.191 565.975 230.691 569.975
 220.691 566.975 c 210.691 563.975 196.441 553.975 198.691 539.975 c 200.941
 525.975 206.941 515.975 204.941 505.225 c 202.941 494.475 192.941 474.725
 193.191 463.475 c 193.441 452.225 194.941 441.225 205.691 438.225 c 216.441
 435.225 219.941 437.725 219.441 435.725 c 218.941 433.725 202.941 410.725
 195.441 403.975 c 187.941 397.225 180.191 394.725 180.691 406.225 c 181.191
 417.725 192.691 435.975 191.441 449.225 c 190.191 462.475 182.191 468.725
 182.191 470.475 c 182.191 472.225 188.191 486.975 185.441 495.475 c 182.691
 503.975 181.648 507.975 180.672 513.225 c 179.691 518.475 169.441 525.225
 162.941 517.725 c 156.441 510.225 160.691 502.475 167.691 499.725 c 174.691
 496.975 174.941 489.725 174.441 483.225 c 173.941 476.725 172.441 475.475
 172.441 475.475 c 172.441 475.475 163.441 480.475 150.441 473.475 c 137.441
 466.475 131.191 456.975 136.691 439.475 c 142.191 421.975 154.941 417.475
 157.191 408.725 c 159.441 399.975 157.691 386.225 166.191 376.975 c 174.691
 367.725 192.191 367.975 197.191 373.225 c 202.191 378.475 209.691 388.811
 210.441 386.143 c 211.191 383.475 209.691 367.975 210.441 357.225 c 211.191
 346.475 213.691 335.975 216.191 325.975 c 218.691 315.975 220.691 300.725
 220.941 292.725 c 221.191 284.725 220.191 277.975 213.941 274.225 c 207.691
 270.475 202.191 272.725 198.691 279.225 c 195.191 285.725 193.691 306.725
 196.441 318.975 c 199.191 331.225 200.941 344.975 192.441 354.975 c 183.941
 364.975 168.691 369.725 155.941 360.725 c 143.191 351.725 135.191 341.725
 144.691 323.475 c 154.191 305.225 159.941 307.225 165.691 299.725 c 171.441
 292.225 171.941 275.725 175.191 268.475 c 178.441 261.225 194.191 242.725
 211.941 246.975 c 229.691 251.225 234.441 256.725 234.441 256.725 c 234.441
 256.725 246.191 238.975 250.941 232.975 c 255.691 226.975 266.191 212.616
 281.691 209.616 c 297.191 206.616 331.191 208.725 350.941 210.225 c 370.691
 211.725 402.605 207.202 414.605 207.702 c 426.605 208.202 450.191 218.475
 460.941 232.975 c 471.691 247.475 486.191 274.725 486.191 274.725 c 486.191
 274.725 501.941 253.725 520.691 262.225 c 539.441 270.725 545.941 285.225
 545.191 295.975 c 544.441 306.725 551.441 322.975 556.441 329.975 c 561.441
 336.975 566.191 343.225 564.191 357.725 c 562.191 372.225 545.691 383.225
 532.691 381.975 c 519.691 380.725 509.691 369.225 508.441 357.475 c 507.191
 345.725 512.691 326.475 514.441 320.225 c 516.191 313.975 519.941 295.225
 516.941 289.225 c 513.941 283.225 506.191 283.225 501.441 299.975 c 496.691
 316.725 497.441 337.975 500.191 349.975 c 502.941 361.975 502.441 385.975
 501.691 391.475 c 500.941 396.975 499.441 403.225 501.941 400.475 c 504.441
 397.725 514.691 384.475 528.191 387.975 c 541.691 391.475 551.941 398.608
 550.941 411.542 c 549.941 424.475 550.691 433.225 556.691 436.475 c f
0.968627 0.556863 0.0784314 rg
351.027 345.413 m 348.621 347.241 332.43 332.073 324.867 327.241 c 317.305
 322.405 308.914 316.507 308.934 311.975 c 308.969 302.104 310.023 272.55
 310.238 269.05 c 310.449 265.55 333.184 250.374 338.617 245.538 c 344.051
 240.702 349.27 237.366 350.672 238.202 c 352.074 239.034 391.699 263.315
 393.598 266.225 c 395.633 269.335 394.855 280.858 394.766 291.819 c 394.672
 302.882 395.254 313.382 394.586 315.475 c 393.266 319.643 352.559 344.245
 351.027 345.413 c f
0.980392 0.752941 0.0470588 rg
388.527 272.557 m 387.859 271.39 370.785 271.089 363.238 270.268 c 352.039
 269.057 355.027 269.89 356.191 275.225 c 357.359 280.557 371.215 305.335
 372.027 306.39 c 372.629 307.179 374.359 303.225 376.527 298.557 c 378.691
 293.89 389.191 273.725 388.527 272.557 c h
335.527 315.89 m 334.859 316.057 339.207 322.253 341.609 326.725 c 345.195
 333.39 349.277 341.557 350.109 340.89 c 350.941 340.225 357.191 328.89 
360.359 324.557 c 363.527 320.225 365.234 315.8 364.027 315.89 c 361.859
 316.057 336.191 315.725 335.527 315.89 c h
348.031 269.401 m 347.496 269.237 322.027 269.975 320.691 269.975 c 319.359
 269.975 315.504 269.073 317.316 273.35 c 319.828 279.261 330.859 304.39
 332.691 304.39 c 332.691 304.39 343.027 282.057 344.691 277.89 c 346.359
 273.725 348.566 269.569 348.031 269.401 c h
394.508 273.39 m 393.156 277.222 377.191 306.057 377.191 308.557 c 377.191
 311.057 390.859 312.14 393.527 314.307 c 396.191 316.475 392.527 318.64
 391.191 318.307 c 389.859 317.975 375.691 312.725 372.527 314.89 c 369.359
 317.057 354.633 342.835 351.633 345.011 c 351.633 345.011 349.859 346.89
 347.691 343.975 c 346.215 341.987 331.027 317.39 329.027 314.39 c 327.027
 311.39 315.941 314.975 312.777 315.975 c 309.609 316.975 306.941 314.39
 309.609 311.89 c 312.277 309.39 325.691 307.39 326.359 305.057 c 327.027
 302.725 310.109 273.807 309.941 270.475 c 309.777 267.14 312.027 265.1 
314.191 264.6 c 316.359 264.1 345.988 263.987 347.82 263.819 c 349.652 263.655
 349.316 247.35 349.316 243.85 c 349.316 240.35 347.191 237.225 351.316 
238.073 c 353.629 238.55 353.902 262.557 355.066 264.225 c 356.234 265.89
 390.953 266.39 393.598 266.225 c 396.246 266.057 395.859 269.557 394.508
 273.39 c f
0.0745098 0.0666667 0.0588235 rg
360.543 175.132 m 356.73 172.272 360.543 170.503 368.793 165.874 c 377.043
 161.249 379.547 156.132 379.793 122.515 c 380.043 88.901 372.293 76.722
 365.543 71.12 c 358.793 65.515 357.898 55.284 359.723 52.12 c 361.543 48.952
 372.293 44.081 381.293 49.925 c 390.293 55.772 395.793 72.335 397.293 88.901
 c 398.793 105.464 398.543 127.874 397.293 142.491 c 396.043 157.104 395.543
 165.632 384.043 171.964 c 372.543 178.3 363.793 177.565 360.543 175.132
 c f
395.848 121.3 m 401.363 119.835 412.18 119.901 420.168 121.3 c 423.969 
121.964 430.484 123.151 431.066 125.229 c 431.469 126.675 441.223 111.554
 435.707 107.901 c 430.191 104.249 425.68 103.272 412.895 105.464 c 400.109
 107.655 393.844 110.581 393.844 110.581 c 395.848 121.3 l f
466.875 130.718 m 469.875 129.64 467.75 133.448 474.711 138.722 c 485.113
 146.612 497.043 144.569 502.543 140.722 c 508.043 136.874 510.434 134.292
 510.711 130.554 c 511.016 126.405 510.711 120.491 510.711 120.491 c 510.711
 120.491 509.875 93.319 508.875 83.159 c 507.875 72.999 507.043 63.304 512.875
 58.069 c 518.711 52.839 529.375 49.3 538.375 56.225 c 547.375 63.151 548.543
 69.307 548.543 71.768 c 548.543 74.233 547.707 76.077 545.375 73.772 c 
543.043 71.46 539.711 66.995 533.711 68.69 c 527.711 70.386 529.043 74.694
 529.375 80.85 c 529.711 87.007 532.484 120.182 531.312 132.335 c 530.531
 140.397 524.543 149.495 517.711 153.807 c 510.875 158.116 501.375 162.468
 488.043 159.237 c 474.711 156.003 464.875 144.878 464.711 137.491 c 464.543
 130.104 466.875 130.718 466.875 130.718 c f
512.875 119.327 m 509.543 121.022 496.043 125.487 485.711 123.022 c 475.375
 120.561 466.707 106.093 463.375 90.854 c 460.043 75.616 466.707 61.304 
477.875 54.991 c 489.043 48.682 497.875 51.913 504.543 57.765 c 511.211 
63.612 512.875 67.921 512.875 67.921 c 512.875 67.921 511.875 73.772 509.543
 73.307 c 507.211 72.847 500.711 65.921 495.543 66.382 c 490.375 66.847 
487.043 71.772 486.211 76.542 c 485.375 81.311 485.777 97.53 489.117 102.948
 c 492.27 108.061 499.211 111.491 505.211 112.487 c 511.211 113.479 512.875
 112.487 512.875 112.487 c 512.875 119.327 l f
220.211 120.097 m 216.875 121.807 202.125 121.968 191.793 119.475 c 181.461
 116.983 174.043 106.698 170.711 91.276 c 167.375 75.854 174.043 61.366 
185.211 54.979 c 196.375 48.593 205.211 51.862 211.875 57.784 c 218.543 
63.702 220.211 68.065 220.211 68.065 c 220.211 68.065 219.211 73.983 216.875
 73.518 c 214.543 73.05 208.043 66.042 202.875 66.507 c 197.711 66.975 194.379
 71.96 193.543 76.788 c 192.711 81.616 194.211 95.858 196.043 98.975 c 197.875
 102.089 206.543 112.163 212.543 113.171 c 218.543 114.175 220.211 113.171
 220.211 113.171 c 220.211 120.097 l f
655.043 121.057 m 651.875 122.39 633.875 127.12 614.043 113.507 c 594.211
 99.89 583.375 86.557 584.875 69.39 c 586.375 52.222 600.711 48.89 621.043
 52.222 c 641.375 55.557 655.043 66.39 655.043 66.39 c 655.043 66.39 655.875
 75.557 655.043 76.557 c 654.211 77.557 650.711 75.39 644.543 72.222 c 638.375
 69.057 623.277 63.057 620.078 66.722 c 616.875 70.39 616.043 80.89 623.375
 94.222 c 630.711 107.557 645.375 116.452 650.543 113.507 c 655.711 110.557
 657.543 105.991 657.543 105.991 c 657.543 105.991 660.375 111.557 660.211
 114.557 c 660.043 117.557 655.043 121.057 655.043 121.057 c f
687.875 72.425 m 688.137 70.241 684.543 59.628 676.211 55.132 c 667.875
 50.636 656.945 50.136 654.445 57.225 c 651.945 64.315 652.875 75.429 653.375
 86.292 c 653.875 97.151 655.711 123.96 656.211 136.061 c 656.711 148.171
 654.543 168.921 651.043 177.393 c 647.543 185.866 643.043 188.464 643.211
 179.987 c 643.375 171.515 654.375 158.198 657.711 154.565 c 661.043 150.936
 658.543 149.206 658.543 149.206 c 658.543 149.206 650.699 152.944 643.207
 164.823 c 635.711 176.702 634.367 188.116 643.207 194.858 c 652.043 201.604
 669.711 193.651 675.043 174.28 c 680.375 154.913 677.043 105.628 675.707
 90.237 c 674.375 74.847 672.707 64.643 676.207 66.374 c 679.707 68.1 687.375
 76.573 687.875 72.425 c f
157.418 88.39 m 155.719 87.222 155.582 74.725 148.418 72.057 c 141.25 69.39
 141.582 76.225 143.25 87.557 c 144.918 98.89 149.754 123.725 149.836 138.057
 c 149.918 152.39 148.75 175.39 147.75 179.89 c 146.75 184.39 151.082 185.89
 155.25 178.222 c 159.418 170.557 159.082 156.057 156.25 147.39 c 153.418
 138.722 147.75 136.225 146.918 136.057 c 146.082 135.89 146.508 132.585
 148.082 132.89 c 149.66 133.198 157.75 139.057 162.75 149.722 c 167.75 
160.39 167.082 173.222 160.918 182.722 c 154.75 192.222 142.25 193.222 134.918
 190.39 c 127.582 187.557 126.25 173.39 129.082 157.39 c 131.918 141.39 
128.082 116.39 123.582 97.057 c 119.082 77.722 121.75 55.89 132.418 51.057
 c 143.082 46.222 158.918 57.39 162.582 68.722 c 166.25 80.057 160.082 90.222
 157.418 88.39 c f
482.293 172.21 m 479.043 165.632 467.418 165.632 464.703 172.21 c 461.984
 178.784 465.77 185.546 472.043 186.214 c 481.168 187.19 485.543 178.784
 482.293 172.21 c h
469.211 190.069 m 458.211 187.307 459.211 176.901 459.211 176.901 c 459.211
 176.901 452.195 170.909 447.195 164.901 c 442.195 158.89 434.348 147.604
 431.695 132.261 c 429.672 120.554 430.375 94.585 431.711 82.89 c 433.043
 71.198 435.543 56.745 441.875 52.198 c 448.207 47.651 455.211 52.686 457.383
 56.421 c 459.555 60.155 460.043 64.054 455.043 72.663 c 450.043 81.268 
450.543 100.268 451.543 123.815 c 452.543 147.362 461.543 162.304 463.875
 164.413 c 463.875 164.413 468.043 161.811 474.043 161.487 c 480.043 161.167
 488.043 167.499 488.043 175.78 c 488.043 184.061 480.211 192.831 469.211
 190.069 c f
630.043 134.628 m 628.668 129.245 619.293 126.839 615.168 132.565 c 611.043
 138.292 615.766 145.417 622.477 144.819 c 628.914 144.249 631.418 140.011
 630.043 134.628 c h
634.391 140.768 m 632.711 146.218 629.164 150.788 626.066 152.823 c 616.301
 159.241 605.977 161.292 588.645 156.557 c 571.312 151.823 567.375 144.018
 567.375 144.018 c 567.375 144.018 562.211 150.585 554.711 154.097 c 547.211
 157.608 536.852 158.612 535.184 153.878 c 534.824 152.85 545.207 146.765
 550.875 138.366 c 556.543 129.968 553.875 105.229 553.707 89.807 c 553.543
 74.382 550.375 62.776 549.543 59.116 c 548.707 55.448 554.375 51.327 560.707
 51.327 c 567.043 51.327 572.207 60.487 574.375 66.597 c 576.543 72.706 
575.176 109.397 575.207 116.46 c 575.246 124.366 577.027 130.436 584.738
 137.557 c 595.113 147.14 609.113 144.866 610.457 142.745 c 610.82 142.175
 606.211 139.589 610.043 131.495 c 613.875 123.401 622.543 122.944 629.043
 126.304 c 635.543 129.663 635.918 135.807 634.391 140.768 c f
0.129412 0.109804 0.113725 rg
474.918 181.589 m 470.254 181.788 469.918 172.815 474.918 172.94 c 479.918
 173.061 480.543 181.343 474.918 181.589 c f
0.0745098 0.0666667 0.0588235 rg
622.777 140.718 m 618.918 141.479 616.715 133.167 622.09 132.436 c 627.465
 131.706 627.086 139.866 622.777 140.718 c f
32.324 170.557 m 32.688 165.893 30.652 147.057 31.203 118.557 c 31.75 90.057
 31.566 64.893 29.367 59.557 c 27.168 54.225 28.637 47.557 42.379 46.557
 c 56.125 45.557 64.738 47.245 61.438 51.901 c 58.141 56.557 54.109 77.893
 53.559 105.057 c 53.008 132.225 55.758 167.225 56.125 168.89 c 56.492 170.557
 64.188 169.725 75.551 161.89 c 86.91 154.057 97.906 138.893 93.145 119.557
 c 88.379 100.225 79.766 98.225 72.801 96.89 c 65.836 95.557 61.805 93.893
 67.488 91.057 c 73.168 88.225 97.906 92.89 111.285 106.225 c 124.664 119.557
 123.379 139.057 116.051 153.225 c 108.719 167.39 95.891 175.725 78.664 
182.393 c 61.438 189.057 47.145 188.89 32.668 186.057 c 18.191 183.225 8.477
 175.557 3.711 169.393 c -1.051 163.225 -1.418 157.39 3.711 161.057 c 8.844
 164.725 31.98 174.893 32.324 170.557 c f
335.875 145.225 m 337.703 143.628 327.375 143.057 324.043 118.393 c 320.711
 93.725 323.211 67.225 322.711 54.893 c 322.211 42.557 306.043 16.893 293.875
 8.893 c 281.711 0.893 254.875 -3.943 238.543 4.225 c 222.211 12.393 222.211
 28.39 222.375 32.225 c 222.543 36.057 225.043 37.444 226.211 35.417 c 227.375
 33.393 227.543 22.893 252.711 18.893 c 277.875 14.893 298.711 26.725 301.875
 41.557 c 305.043 56.393 303.211 63.393 300.211 78.893 c 297.211 94.393 
301.543 119.057 307.375 131.725 c 313.211 144.393 330.543 149.893 335.875
 145.225 c f
247.277 162.1 m 244.711 161.64 256.113 152.436 256.945 140.936 c 257.777
 129.436 253.277 105.003 254.777 85.003 c 256.277 65.003 263.043 50.643 
285.043 54.307 c 307.043 57.975 309.711 66.975 309.711 66.975 c 303.711 
73.518 l 303.711 73.518 298.211 65.307 290.043 67.307 c 281.875 69.307 279.082
 73.526 277.711 87.307 c 275.316 111.37 280.398 126.507 276.777 139.436 
c 272.113 156.1 253.777 163.268 247.277 162.1 c f
185.754 130.6 m 185.586 123.765 172.961 122.89 169.293 129.057 c 165.629
 135.222 173.133 141.175 177.961 140.89 c 183.629 140.557 185.918 137.432
 185.754 130.6 c h
256.977 76.436 m 254.641 74.1 247.227 66.128 241.227 67.843 c 235.227 69.557
 236.559 73.917 236.891 80.147 c 237.227 86.382 241.059 130.776 240.559 
135.765 c 240.059 140.749 232.059 149.628 225.227 153.987 c 218.391 158.35
 212.988 161.936 199.652 158.667 c 193.797 157.229 189.645 155.046 186.398
 152.229 c 186.395 152.229 186.395 152.229 186.395 152.225 c 185.254 151.237
 184.234 150.167 183.285 149.03 c 180.129 145.87 176.668 146.1 171.379 144.225
 c 163.598 141.464 157.758 126.378 171.129 121.354 c 182.129 117.225 191.879
 122.475 191.504 132.546 c 191.336 137.007 190.129 140.475 192.531 142.511
 c 203.762 149.065 204.859 144.425 210.059 140.749 c 215.559 136.854 217.891
 134.647 218.227 130.452 c 218.559 126.261 218.227 120.268 218.227 120.268
 c 218.227 120.268 217.391 92.768 216.391 82.487 c 215.391 72.206 214.559
 62.39 220.391 57.097 c 226.227 51.8 236.891 48.214 245.891 55.225 c 254.891
 62.233 261.977 70.483 261.977 72.975 c 261.977 75.468 259.309 78.772 256.977
 76.436 c f
177.406 136.475 m 172.961 136.483 172.629 130.378 176.469 129.218 c 181.129
 127.807 185.32 136.46 177.406 136.475 c f
Q Q
showpage
%%Trailer
end restore
%%EOF
